{
  "type": "object",
  "title": "Typeform",
  "required": [
    "#token",
    "form_id",
    "dayspan"
  ],
  "properties": {
    "#token": {
      "type": "string",
      "title": "Personal access token",
      "format": "password",
      "propertyOrder": 1
    },
    "dayspan": {
      "type": "integer",
      "title": "How many days back you want to go?",
      "propertyOrder": 3
    },
    "form_id": {
      "type": "string",
      "title": "Id of the questionnaire",
      "propertyOrder": 2
    }
  }
}